{
	"info": {
		"_postman_id": "4f2b3c55-1a5b-49f4-8912-f1dfa76b14b4",
		"name": "_ Itineraire - appel contextuel",
		"description": "Description d'exemple d'appel contextuel avec :\n* type transport (visualisation des demandes de transport)\n* type patient (préremplissage du formualaire)",
		"schema": "https://schema.getpostman.com/json/collection/v2.1.0/collection.json"
	},
	"item": [
		{
			"name": "appel contextuel - type = transport",
			"protocolProfileBehavior": {
				"disabledSystemHeaders": {},
				"followRedirects": false
			},
			"request": {
				"method": "POST",
				"header": [],
				"body": {
					"mode": "urlencoded",
					"urlencoded": [
						{
							"key": "type",
							"value": "transport",
							"type": "text"
						},
						{
							"key": "login",
							"value": "{{login}}",
							"type": "text"
						},
						{
							"key": "password",
							"value": "{{password}}",
							"type": "text"
						},
						{
							"key": "authkey",
							"value": "{{authkey}}",
							"type": "text",
							"disabled": true
						}
					]
				},
				"url": {
					"raw": "https://{{server}}/api/contextual_call/transport_request_create",
					"protocol": "https",
					"host": [
						"{{server}}"
					],
					"path": [
						"api",
						"contextual_call",
						"transport_request_create"
					]
				}
			},
			"response": []
		},
		{
			"name": "appel contextuel 2 - type = transport",
			"protocolProfileBehavior": {
				"disabledSystemHeaders": {},
				"followRedirects": false
			},
			"request": {
				"method": "POST",
				"header": [],
				"body": {
					"mode": "urlencoded",
					"urlencoded": [
						{
							"key": "type",
							"value": "transport",
							"type": "text"
						},
						{
							"key": "login",
							"value": "{{login}}",
							"type": "text"
						},
						{
							"key": "password",
							"value": "{{password}}",
							"type": "text"
						},
						{
							"key": "authkey",
							"value": "{{authkey}}",
							"type": "text",
							"disabled": true
						}
					]
				},
				"url": {
					"raw": "https://{{server}}/api/v2/contextual_call/transport_request_create",
					"protocol": "https",
					"host": [
						"{{server}}"
					],
					"path": [
						"api",
						"v2",
						"contextual_call",
						"transport_request_create"
					]
				}
			},
			"response": []
		},
		{
			"name": "appel contextuel - type = patient",
			"protocolProfileBehavior": {
				"disabledSystemHeaders": {},
				"followRedirects": false
			},
			"request": {
				"method": "POST",
				"header": [],
				"body": {
					"mode": "urlencoded",
					"urlencoded": [
						{
							"key": "type",
							"value": "patient",
							"type": "text"
						},
						{
							"key": "login",
							"value": "{{login}}",
							"type": "text"
						},
						{
							"key": "password",
							"value": "{{password}}",
							"type": "text"
						},
						{
							"key": "authkey",
							"value": "{{authkey}}",
							"type": "text",
							"disabled": true
						},
						{
							"key": "nom",
							"value": "Deschamps",
							"type": "text"
						},
						{
							"key": "prenom",
							"value": "André",
							"type": "text"
						},
						{
							"key": "nom_naissance",
							"value": "",
							"type": "text"
						},
						{
							"key": "ipp",
							"value": "233457",
							"type": "text"
						},
						{
							"key": "nirpp",
							"value": "1988756789788",
							"type": "text"
						},
						{
							"key": "telephone",
							"value": "0587147000",
							"type": "text"
						},
						{
							"key": "date_naissance",
							"value": "10/02/1987",
							"type": "text"
						},
						{
							"key": "adresse_1",
							"value": "8 Rue des Cerisiers",
							"type": "text"
						},
						{
							"key": "adresse_2",
							"value": "Lieudit des Champs",
							"type": "text"
						},
						{
							"key": "code_postal",
							"value": "87000",
							"type": "text"
						},
						{
							"key": "ville",
							"value": "Limoges",
							"type": "text"
						},
						{
							"key": "code_infirmiere",
							"value": "CLCH88AMB1",
							"type": "text"
						},
						{
							"key": "numero_chambre",
							"value": "B108",
							"type": "text"
						},
						{
							"key": "numero_dossier",
							"value": "SEJ4242-AZ",
							"type": "text"
						}
					]
				},
				"url": {
					"raw": "https://{{server}}/api/contextual_call/transport_request_create",
					"protocol": "https",
					"host": [
						"{{server}}"
					],
					"path": [
						"api",
						"contextual_call",
						"transport_request_create"
					]
				}
			},
			"response": []
		},
		{
			"name": "appel contextuel 2 - type = patient",
			"protocolProfileBehavior": {
				"disabledSystemHeaders": {},
				"followRedirects": false
			},
			"request": {
				"method": "POST",
				"header": [],
				"body": {
					"mode": "urlencoded",
					"urlencoded": [
						{
							"key": "type",
							"value": "patient",
							"type": "text"
						},
						{
							"key": "login",
							"value": "{{login}}",
							"type": "text",
							"disabled": true
						},
						{
							"key": "password",
							"value": "{{password}}",
							"type": "text",
							"disabled": true
						},
						{
							"key": "auth_key",
							"value": "{{authkey}}",
							"type": "text"
						},
						{
							"key": "patient_lastname",
							"value": "Deschamps",
							"type": "text"
						},
						{
							"key": "patient_firstname",
							"value": "André",
							"type": "text"
						},
						{
							"key": "patient_birthname",
							"value": "",
							"type": "text"
						},
						{
							"key": "patient_ipp",
							"value": "233457",
							"type": "text"
						},
						{
							"key": "patient_nirpp",
							"value": "1988756789788",
							"type": "text"
						},
						{
							"key": "patient_phone_number",
							"value": "0587147000",
							"type": "text"
						},
						{
							"key": "patient_birthdate",
							"value": "10/02/1987",
							"type": "text"
						},
						{
							"key": "patient_address_1",
							"value": "8 Rue des Cerisiers",
							"type": "text"
						},
						{
							"key": "patient_address_2",
							"value": "Lieudit des Champs",
							"type": "text"
						},
						{
							"key": "patient_zipcode",
							"value": "87000",
							"type": "text"
						},
						{
							"key": "patient_city",
							"value": "Limoges",
							"type": "text"
						},
						{
							"key": "nurse_identifier",
							"value": "CLCH88AMB1",
							"type": "text"
						},
						{
							"key": "patient_room_number",
							"value": "B108",
							"type": "text"
						},
						{
							"key": "stay_number",
							"value": "SEJ4242-AZ",
							"type": "text"
						}
					]
				},
				"url": {
					"raw": "https://{{server}}/api/v2/contextual_call/transport_request_create",
					"protocol": "https",
					"host": [
						"{{server}}"
					],
					"path": [
						"api",
						"v2",
						"contextual_call",
						"transport_request_create"
					]
				}
			},
			"response": []
		},
		{
			"name": "appel contextuel - type = prescription",
			"protocolProfileBehavior": {
				"disabledSystemHeaders": {},
				"followRedirects": false
			},
			"request": {
				"method": "POST",
				"header": [],
				"body": {
					"mode": "urlencoded",
					"urlencoded": [
						{
							"key": "type",
							"value": "prescription",
							"type": "text"
						},
						{
							"key": "login",
							"value": "{{login}}",
							"type": "text"
						},
						{
							"key": "password",
							"value": "{{password}}",
							"type": "text"
						},
						{
							"key": "authkey",
							"value": "{{authkey}}",
							"type": "text",
							"disabled": true
						},
						{
							"key": "nom",
							"value": "Deschamps",
							"type": "text"
						},
						{
							"key": "prenom",
							"value": "André",
							"type": "text"
						},
						{
							"key": "nom_naissance",
							"value": "",
							"type": "text"
						},
						{
							"key": "ipp",
							"value": "233457",
							"type": "text"
						},
						{
							"key": "nirpp",
							"value": "1988756789788",
							"type": "text"
						},
						{
							"key": "telephone",
							"value": "0587147000",
							"type": "text"
						},
						{
							"key": "date_naissance",
							"value": "10/02/1987",
							"type": "text"
						},
						{
							"key": "adresse_1",
							"value": "8 Rue des Cerisiers",
							"type": "text"
						},
						{
							"key": "adresse_2",
							"value": "Lieudit des Champs",
							"type": "text"
						},
						{
							"key": "code_postal",
							"value": "87000",
							"type": "text"
						},
						{
							"key": "ville",
							"value": "Limoges",
							"type": "text"
						},
						{
							"key": "code_infirmiere",
							"value": "CLCH88AMB1",
							"type": "text"
						},
						{
							"key": "numero_chambre",
							"value": "B108",
							"type": "text"
						},
						{
							"key": "numero_dossier",
							"value": "SEJ4242-AZ",
							"type": "text"
						}
					]
				},
				"url": {
					"raw": "https://{{server}}/api/contextual_call/transport_request_create",
					"protocol": "https",
					"host": [
						"{{server}}"
					],
					"path": [
						"api",
						"contextual_call",
						"transport_request_create"
					]
				}
			},
			"response": []
		}
	]
}